2021-10-11T16:33:04+00:00 INFO Regenerating images for attachment ID: 19
2021-10-11T16:33:06+00:00 INFO Regenerating images for attachment ID: 12
2021-10-11T16:33:07+00:00 INFO Regenerating images for attachment ID: 5
2021-10-11T16:33:08+00:00 INFO Completed product image regeneration job.
2021-10-11T16:37:07+00:00 INFO Regenerating images for attachment ID: 19
2021-10-11T16:37:09+00:00 INFO Regenerating images for attachment ID: 12
2021-10-11T16:37:11+00:00 INFO Regenerating images for attachment ID: 5
2021-10-11T16:37:14+00:00 INFO Completed product image regeneration job.
